…
print(ptw_sheet)
```

    ## # A tibble: 94 x 13
    ##    dumpster month     year date                weight_tons volume_cubic_yards
    ##       <dbl> <chr>    <dbl> <dttm>                    <dbl>              <dbl>
    ##  1        1 January   2017 2017-01-02 00:00:00        1.79                 15
    ##  2        2 January   2017 2017-01-30 00:00:00        1.58                 15
    ##  3        3 February  2017 2017-02-26 00:00:00        2.32                 18
    ##  4        4 February  2017 2017-02-26 00:00:00        3.72                 15
    ##  5        5 February  2017 2017-02-28 00:00:00        1.45                 15
    ##  6        6 March     2017 2017-03-30 00:00:00        1.71                 15
    ##  7        7 April     2017 2017-04-01 00:00:00        1.82                 15
    ##  8        8 April     2017 2017-04-20 00:00:00        2.37                 15
    ##  9        9 May       2017 2017-05-10 00:00:00        2.64                 15
    ## 10       10 May       2017 2017-05-26 00:00:00        2.78                 15
    ## # i 84 more rows
    ## # i 7 more variables: plastic_bottles <dbl>, polystyrene <dbl>,
    ## #   cigarette_butts <dbl>, glass_bottles <dbl>, grocery_bags <dbl>,
    ## #   chip_bags <dbl>, homes_powered <dbl>
…
ctw_sheet = read_excel("./mtw_data.xlsx",
  sheet = "Captain Trash Wheel",
  skip = 1) |>
  janitor::clean_names()|>
  drop_na(dumpster) |>
    mutate(
      homes_powered = (weight_tons * 500)/30
    )

print(ctw_sheet)
```

    ## # A tibble: 25 x 11
    ##    dumpster month     year date                weight_tons volume_cubic_yards
    ##       <dbl> <chr>    <dbl> <dttm>                    <dbl>              <dbl>
    ##  1        1 June      2018 2018-06-30 00:00:00        0.96                 10
    ##  2        2 July      2018 2018-07-19 00:00:00        1.47                 10
    ##  3        3 July      2018 2018-07-23 00:00:00        3.19                 10
    ##  4        4 August    2018 2018-08-08 00:00:00        1.11                 10
    ##  5        5 October   2018 2018-10-15 00:00:00        1.44                 10
    ##  6        6 December  2018 2018-12-14 00:00:00        0.66                  8
    ##  7        7 March     2019 2019-03-07 00:00:00        0.98                  8
    ##  8        8 April     2019 2019-04-24 00:00:00        1.8                  10
    ##  9        9 May       2019 2019-05-31 00:00:00        2.17                 10
    ## 10       10 August    2019 2019-08-08 00:00:00        1.21                  9
    ## # i 15 more rows
    ## # i 5 more variables: plastic_bottles <dbl>, polystyrene <dbl>,
    ## #   cigarette_butts <dbl>, plastic_bags <dbl>, homes_powered <dbl>
…
gtw_sheet = read_excel("./mtw_data.xlsx",
  sheet = "Gwynnda Trash Wheel", 
  skip = 1) |>
  janitor::clean_names() |>
  drop_na(dumpster) |>
    mutate(
      homes_powered = (weight_tons * 500)/30
    )

print(gtw_sheet)
```

    ## # A tibble: 106 x 11
    ##    dumpster month   year date                weight_tons volume_cubic_yards
    ##       <dbl> <chr>  <dbl> <dttm>                    <dbl>              <dbl>
    ##  1        1 July    2021 2021-07-03 00:00:00        0.93                 15
    ##  2        2 July    2021 2021-07-07 00:00:00        2.26                 15
    ##  3        3 July    2021 2021-07-07 00:00:00        1.62                 15
    ##  4        4 July    2021 2021-07-16 00:00:00        1.76                 15
    ##  5        5 July    2021 2021-07-30 00:00:00        1.53                 15
    ##  6        6 August  2021 2021-08-11 00:00:00        2.06                 15
    ##  7        7 August  2021 2021-08-14 00:00:00        1.9                  15
    ##  8        8 August  2021 2021-08-16 00:00:00        2.16                 15
    ##  9        9 August  2021 2021-08-16 00:00:00        2.6                  15
    ## 10       10 August  2021 2021-08-17 00:00:00        3.21                 15
    ## # i 96 more rows
    ## # i 5 more variables: plastic_bottles <dbl>, polystyrene <dbl>,
    ## #   cigarette_butts <dbl>, plastic_bags <dbl>, homes_powered <dbl>

Combining datasets

``` r
total_data = 
  bind_rows(ptw_sheet, gtw_sheet, ctw_sheet)

print(total_data) 
```

    ## # A tibble: 225 x 14
    ##    dumpster month     year date                weight_tons volume_cubic_yards
    ##       <dbl> <chr>    <dbl> <dttm>                    <dbl>              <dbl>
    ##  1        1 January   2017 2017-01-02 00:00:00        1.79                 15
    ##  2        2 January   2017 2017-01-30 00:00:00        1.58                 15
    ##  3        3 February  2017 2017-02-26 00:00:00        2.32                 18
    ##  4        4 February  2017 2017-02-26 00:00:00        3.72                 15
    ##  5        5 February  2017 2017-02-28 00:00:00        1.45                 15
    ##  6        6 March     2017 2017-03-30 00:00:00        1.71                 15
    ##  7        7 April     2017 2017-04-01 00:00:00        1.82                 15
    ##  8        8 April     2017 2017-04-20 00:00:00        2.37                 15
    ##  9        9 May       2017 2017-05-10 00:00:00        2.64                 15
    ## 10       10 May       2017 2017-05-26 00:00:00        2.78                 15
    ## # i 215 more rows
    ## # i 8 more variables: plastic_bottles <dbl>, polystyrene <dbl>,
    ## #   cigarette_butts <dbl>, glass_bottles <dbl>, grocery_bags <dbl>,
    ## #   chip_bags <dbl>, homes_powered <dbl>, plastic_bags <dbl>
…
